﻿# Tiled2Unity generated file. Do not modify by hand.
# Wavefront file for 'untitled_mesh_0007.obj'

# Vertices (Count = 4)
v 0 -30 0
v -1 -30 0
v -1 -29 0
v 0 -29 0

# Texture cooridinates (Count = 4)
vt 0 0
vt 1 0
vt 1 1
vt 0 1

# Normal
vn 0 0 -1

# Mesh description
g untitled_mesh_0007

# Faces
f 1/1/1 2/2/1 3/3/1 4/4/1

